Knitting hats, scarves, and mittens
…
word_items

# A tibble: 16,530 x 25
   data_id num_item_id   age comprehension production language   form 
     <dbl>       <dbl> <int>         <int>      <int> <chr>      <chr>
 1  129242         165    27           497        497 English ( WS   
 2  129243         165    21           369        369 English ( WS   
 3  129244         165    26           190        190 English ( WS   
 4  129245         165    27           264        264 English ( WS   
 5  129246         165    19           159        159 English ( WS   
 6  129247         165    30           513        513 English ( WS   
 7  129248         165    25           444        444 English ( WS   
 8  129249         165    24           582        582 English ( WS   
 9  129250         165    28           558        558 English ( WS   
10  129251         165    18             7          7 English ( WS   
#  with 16,520 more rows, and 18 more variables: birth_order <fct>,
#   ethnicity <fct>, sex <fct>, zygosity <chr>, norming <lgl>,
#   mom_ed <fct>, longitudinal <lgl>, source_name <chr>,
#   license <chr>, item_id <chr>, definition <chr>, type <chr>,
#   category <chr>, lexical_category <chr>, lexical_class <chr>,
#   word <chr>, complexity_category <chr>, produces <lgl>
…
What proportion of kids at each age produce each word?

word_summary <- word_items %>% 
  group_by(age, word) %>%
  summarise(kids_produce = sum(produces, na.rm = TRUE),
            kids_n = n_distinct(data_id),
            prop_produce = kids_produce / kids_n) %>% 
  ungroup() %>% 
  # grab even ages only
  filter(age %% 2 == 0) %>% 
  select(age, word, prop_produce, kids_n)

word_summary

# A tibble: 24 x 4
     age word    prop_produce kids_n
   <int> <chr>          <dbl>  <int>
 1    16 hat          0.325      956
 2    16 mittens      0.0262     956
 3    16 scarf        0.00314    956
 4    18 hat          0.543      442
 5    18 mittens      0.104      442
 6    18 scarf        0.0271     442
 7    20 hat          0.675      274
 8    20 mittens      0.165      273
 9    20 scarf        0.0696     273
10    22 hat          0.785      200
#  with 14 more rows
…
